<?xml version="1.0" encoding="utf-8"?>
<!-- Generator: Adobe Illustrator 23.0.1, SVG Export Plug-In . SVG Version: 6.00 Build 0)  -->
<svg version="1.1" id="Layer_1" xmlns="http://www.w3.org/2000/svg" xmlns:xlink="http://www.w3.org/1999/xlink" x="0px" y="0px"
	 viewBox="0 0 203.2 203.6" style="enable-background:new 0 0 203.2 203.6;" xml:space="preserve">
<style type="text/css">
	.st0{fill:#ED7622;}
	.st1{fill:#727272;}
</style>
<path class="st0" d="M0.2,101.6c0-16.7,0-16.9,16.2-20.5c5.6-1.2,8.4-3.9,10.8-9.2c3.3-7,2.9-12.4-1.8-18.1c-1.5-1.8-2.5-3.9-3.5-6
	c-2-4.1-1.6-8.2,1.6-11.6c4.1-4.4,8.4-8.6,12.7-12.7c3.4-3.2,7.4-3.5,11.6-1.7c1.2,0.5,2.3,1.2,3.5,1.9C63.6,31,63.6,31.1,76.4,25
	c1.6-0.8,3.1-2.9,3.7-4.8c1.4-4.1,2-8.4,3.2-12.5c1.4-4.9,4.7-7.6,9.8-7.6c5.8-0.1,11.7-0.1,17.5,0c5.1,0.1,8.4,2.7,9.8,7.6
	c0.2,0.8,0.7,1.6,0.7,2.4c0.6,10.3,5.4,17,15.8,19c2.2,0.4,4.9,0.5,6.8-0.4c3.8-1.7,7.1-4.3,10.7-6.3c4.9-2.7,9.2-2.2,13.2,1.6
	s7.8,7.7,11.7,11.7c3.7,3.8,3.9,8.2,1.7,12.9c-0.4,0.7-0.7,1.6-1.3,2.1c-7.7,8.1-6.9,16.8-1.5,25.6c1,1.6,2.9,3.2,4.7,3.8
	c4.1,1.4,8.4,2,12.5,3.2c5.1,1.4,7.8,4.8,7.8,10.2c0,5.7,0.1,11.3,0,17c-0.1,5.4-2.6,8.5-7.9,10.1c-0.6,0.2-1.3,0.6-1.9,0.6
	c-10.8,0.3-16.9,6.1-19.2,16.3c-0.4,2-0.5,4.6,0.4,6.4c1.8,3.7,4.3,7.1,6.4,10.7c2.8,4.9,2.3,9.2-1.6,13.2
	c-3.7,3.9-7.5,7.6-11.3,11.3c-4.1,4-8.7,4.5-13.7,1.9c-0.6-0.3-1.2-0.6-1.7-1c-7.8-6.9-16.1-7.7-24.6-1.8c-2,1.4-3.9,3.4-4.8,5.5
	c-1.5,3.7-2,7.7-3,11.6c-1.6,5.6-4.7,8.1-10.3,8.2c-5.7,0.1-11.3,0.1-17,0c-5.2,0-8.4-2.8-9.8-7.6c-0.7-2.2-1.5-4.5-1.8-6.7
	c-0.7-6.4-3-11.1-10.1-12.6c-3.7-0.7-4.1-3.5-1.6-6.4c3-3.6,6.2-7,8.9-10.8c2.4-3.3,4.8-4,8.9-2.9c36.5,9.6,71.7-18.6,70.6-56.3
	c-0.8-29.1-24.2-52.8-54-54.7C76.4,43.8,50,65,46.3,92.9c-1.1,8,0.8,16.4,1,24.7c0.1,2-0.3,4.7-1.6,6c-3.8,3.7-8.1,6.9-12.2,10.3
	c-3.2,2.7-6,1.9-6.6-2c-1.2-6.7-5.6-8.7-11.4-9.5c-2-0.3-3.9-0.9-5.8-1.4c-7.3-1.9-9.6-4.8-9.7-12.3C0.2,106.3,0.2,103.9,0.2,101.6z
	 M77.1,172.3c8.1-0.5,8.4,5,9.7,9.8c4.7,17.2,0.2,14.5,19,14.8c7.4,0.1,8.1,0,9.2-7.4c1.5-10.4,6-16.8,16.5-20.4
	c7.2-2.5,12.6-2.7,19,1.4c12.1,7.7,9,7.8,19-2.1c8.7-8.6,8.7-6.4,1.9-16.6c-4.8-7.1-6.4-13.7-1.3-21.1c1.1-1.6,1.6-3.7,2.2-5.6
	c1.4-4.4,4.4-6.7,8.9-7.8c16.2-4.1,16.1-4.2,15.9-21.1c0-4.2-1.5-6.1-5.7-7.2c-19.3-4.6-16.2-2.6-22.5-18.4
	c-0.1-0.3-0.3-0.6-0.4-0.9c-2.7-4.6-2.4-9,0.5-13.6c2.6-4.2,7.1-9,6.5-13c-0.6-4.2-6.3-7.6-9.5-11.6c-3.3-4.2-6.6-5-10.9-1.4
	c-8.4,7.2-17.4,9.2-27.2,2.5c-0.7-0.5-1.5-0.6-2.3-0.9c-4.6-1.3-7.1-4.4-8.2-9.1c-4-16.3-4.1-16.3-21-15.9c-0.3,0-0.7,0-1,0
	c-3.3-0.1-5.3,1.3-5.9,4.7c-0.8,3.9-1.8,7.8-2.9,11.6c-2,7.5-20.1,16.3-27.3,13.3c-0.9-0.4-1.8-0.9-2.6-1.4c-3.3-2-6.6-3.8-9.8-5.9
	c-2.6-1.7-4.8-1.8-7,0.6c-3.3,3.5-6.7,6.9-10.2,10.3c-2.2,2.1-2.2,4.2-0.6,6.6c2.2,3.5,4.3,7.1,6.5,10.7c2.3,3.7,1.9,7.3,0.8,11.4
	C33,81,25.8,88.4,12.5,89.1c-0.2,0-0.3,0.1-0.5,0.1c-3.8,0.4-5,2.7-4.9,6.2c0.1,1.7,0,3.3,0,5c0.1,15.2-1.6,12.3,12.8,16.1
	c5.4,1.4,12.1,1.1,12.2,9.5c9-5.2,9.2-5.6,7.8-13.5C32.4,69.7,71.2,31.6,113.8,40c32.7,6.5,54.2,35.2,51.1,68.4
	c-3.4,36.4-38.1,62.7-73.7,55.6c-5-1-7.9,0-10.4,3.9C79.8,168.9,78.9,169.9,77.1,172.3z"/>
<path class="st1" d="M102,62.4c5.1,1.3,10.3,2.4,15.3,4.1c4.7,1.7,4.9,4.5,0.9,7.5c-5,3.8-10.2,7.5-15,11.6
	c-5.9,4.9-6.6,11.7-1.9,16.5c4.9,5,11.7,4.3,16.8-1.8c3.8-4.6,7.3-9.5,11-14.2c1.2-1.4,3.3-3.7,4.2-3.4c1.7,0.7,3.3,2.6,4,4.4
	c5.8,14.6,3.5,28.3-6.7,40c-10.2,11.6-23.4,15.4-38.4,11.7c-4.1-1-6.3-0.3-8.9,2.8c-15,17.9-30.1,35.6-45.3,53.3
	c-4.4,5.2-9.8,8.4-16.8,8.4c-9.1,0-15.6-4.3-19.4-12.3c-3.6-7.5-2-17.3,4.3-23c13.6-12.3,27.5-24.1,41.4-36.1
	c4.8-4.1,9.6-8.2,14.7-12c2.9-2.2,3.5-4.4,2.6-8.1C58.2,86.7,76.3,63.2,102,62.4z M108.3,71.7c-1.6-0.5-2.4-0.8-3.2-0.9
	C83.8,68.5,66.6,88,71.7,108.9c1.7,6.8,1.1,12.2-4.8,16.9c-11.4,9.2-22.6,18.6-33.8,28.1c-7.3,6.3-14.6,12.7-21.6,19.3
	c-4.3,4-5.2,10.2-2.9,15.2c2.4,5.2,7.2,7.8,13.4,7.6c5.5-0.2,8.7-3.8,11.9-7.5c14.2-16.6,28.5-33,42.2-50c5.3-6.6,10.8-8.8,19-6.7
	c17.1,4.3,33.6-6.7,36.9-24.1c0.7-3.8,0.5-7.7,0.7-11.6c-4.4,3.6-7.2,7.3-10.3,10.7c-7,7.8-18.9,8.1-26.3,0.8
	c-7.5-7.4-7.1-19.7,1-26.6C100.5,78,104.1,75.1,108.3,71.7z"/>
</svg>
