<?xml version="1.0" encoding="utf-8"?>
<!-- Generator: Adobe Illustrator 23.0.1, SVG Export Plug-In . SVG Version: 6.00 Build 0)  -->
<svg version="1.1" id="Layer_1" xmlns="http://www.w3.org/2000/svg" xmlns:xlink="http://www.w3.org/1999/xlink" x="0px" y="0px"
	 viewBox="0 0 430.2 512.3" style="enable-background:new 0 0 430.2 512.3;" xml:space="preserve">
<style type="text/css">
	.st0{fill:#ED7622;}
	.st1{fill:#AFAFAF;}
</style>
<g>
	<g>
		<path class="st0" d="M270.8,19.4l79.5,276.8l-164.4,47.2L106.4,66.6L270.8,19.4 M274.9,0c-1.1,0-2.2,0.2-3.3,0.5L95.7,51
			c-6.3,1.8-10,8.5-8.2,14.8l82.8,288.3c1.5,5.2,6.3,8.7,11.6,8.7c1.1,0,2.2-0.1,3.3-0.5l175.9-50.5c6.3-1.8,10-8.5,8.2-14.8
			L286.5,8.7C285,3.4,280.1,0,274.9,0L274.9,0z"/>
	</g>
	<path class="st1" d="M133,421.9c-15.6-52.4-31.1-104.4-46.5-156.4c-8.8-29.7-17.8-59.3-26.4-89c-1.4-4.8-3.5-6.1-8.2-6
		c-12.5,0.3-25,0.2-37.5,0.1c-8.7,0-14.3-5-14.4-12.5c-0.1-7.7,5.7-12.9,14.5-12.9c19.5,0,39,0.1,58.5-0.1c3.5,0,4.9,1.1,5.8,4.4
		c3,10.9,6.5,21.7,9.5,32.6c1,3.6,2.5,4.6,6.2,4.6c62.7-0.1,125.3-0.1,188-0.1c47.5,0,95,0,142.5,0c1.5,0,3,0,5.2,0
		c-0.5,2.7-0.7,4.9-1.2,7c-13.5,59.2-27.1,118.4-40.5,177.7c-0.9,3.9-2.3,5.5-6.3,5.8c-25.1,1.9-50.1,4.1-75.2,6.2
		c-37.5,3.2-75,6.3-112.5,9.5c-13.6,1.1-27.2,2.3-41.2,3.5c2.2,8.1,4.1,15.9,6.5,23.4c0.4,1.2,3.2,2.3,5,2.3c34,0.1,68,0.1,102,0.1
		c26.3,0,52.7,0,79,0c22.9,0.1,42.4,18.4,44.2,41.4c1.8,22.9-14.7,44.1-37.2,47.8c-34.6,5.6-61.5-26.7-49.9-59.8
		c0.4-1.1,0.7-2.1,1.2-3.6c-42.2,0-83.9,0-126.3,0c6.6,16.6,5.5,32.2-5.2,46.4c-7.7,10.3-18.2,15.7-30.8,17.6
		c-22.2,3.3-44.7-13.3-49.2-36.7C88.4,454.7,99.7,427.5,133,421.9z M144.6,371.1c1.7,0,2.8,0.1,4,0c25.6-2.2,51.1-4.5,76.7-6.6
		c45.3-3.8,90.6-7.6,135.9-11.3c4-0.3,5.6-1.8,6.5-5.7c7.9-35.2,16-70.4,24-105.6c2.2-9.7,4.4-19.4,6.6-29.2
		c-100.4,0-200.3,0-300.7,0C113.3,265.7,128.9,318.3,144.6,371.1z M156,467c-0.1-10.6-8.9-19.4-19.4-19.3
		c-10.4,0.1-19.4,9-19.4,19.4c-0.1,10.7,8.9,19.5,19.8,19.4C147.6,486.4,156.1,477.8,156,467z M364.1,467.4
		c0.1-10.7-8.5-19.5-19-19.6c-10.7-0.2-19.7,8.8-19.7,19.6c0,10.4,8.5,19.1,18.9,19.2C355.4,486.7,364.1,478.4,364.1,467.4z"/>
</g>
</svg>
