<svg xmlns="http://www.w3.org/2000/svg" width="121" height="109" viewBox="0 0 121 109">
  <defs>
    <style>
      .cls-1 {
        fill: #ed7622;
        fill-rule: evenodd;
      }
    </style>
  </defs>
  <path class="cls-1" d="M42.943,81.669a7.321,7.321,0,0,0-7.323-7.275H34.285a7.32,7.32,0,0,0-7.324,7.279v13.49H42.943V81.669ZM29.368,80.08h0.346l-0.346-.016c0-.027.174-2.681,3.813-3.08l0.473-.052V82.8H29.368V80.08Zm4.55,12.69-0.426.01H29.547v-7.75h4.371V92.77Zm2.3-15.368h0.427l0.046-.418c3.639,0.4,3.812,3.053,3.813,3.08v2.741H36.218V77.4ZM40.512,92.77l-0.426.01H36.141v-7.75h4.371V92.77ZM88.795,41.5H87.454a7.32,7.32,0,0,0-7.324,7.279V62.275H96.118V48.781A7.319,7.319,0,0,0,88.795,41.5Zm-6.256,5.682h0.287l-0.286-.014c0-.027.174-2.682,3.813-3.084l0.473-.052v5.87H82.539V47.185Zm4.553,12.7H82.721V52.144h4.371v7.739Zm2.3-15.847,0.473,0.052c3.639,0.4,3.812,3.054,3.813,3.082v2.742H89.389V44.036Zm4.294,15.847H89.312V52.144h4.371v7.739Zm2.746,21.786a7.321,7.321,0,0,0-7.323-7.275H87.771a7.32,7.32,0,0,0-7.324,7.279v13.49H96.429V81.669ZM82.854,80.08H83.2l-0.346-.016c0-.027.174-2.681,3.813-3.08l0.473-.052V82.8H82.854V80.08ZM87.4,92.77l-0.427.01H83.033v-7.75H87.4V92.77Zm6.592,0-0.426.006H89.627V85.031H94V92.77ZM89.7,82.8V77.4H90.13l0.046-.418c3.639,0.395,3.818,3.048,3.819,3.075V82.8H89.7Zm-54.39-41.61H33.973a7.32,7.32,0,0,0-7.324,7.28V61.964H42.637V48.47A7.319,7.319,0,0,0,35.314,41.191Zm-6.261,5.684h0.326l-0.326-.016c0-.027.174-2.682,3.813-3.081l0.473-.052V49.6H29.053V46.875Zm4.55,12.7H29.232V51.838H33.6v7.739Zm2.3-15.85,0.473,0.052c3.639,0.4,3.812,3.054,3.813,3.081V49.6H35.9V43.727Zm4.291,15.426H39.771v0.424H35.823V51.838h4.371v7.314ZM12.8,106.413H0V109h121v-2.586H109.705V29.075h7.426L102.563,0H19.938L5.372,29.075H12.8v77.338Zm47.051-.235-0.118.234-0.264,0H49.975V82.076a9.493,9.493,0,0,1,9.493-9.438h0.426Zm13.1,0.142-0.43.094H62.469V72.638h0.96a9.491,9.491,0,0,1,9.517,9.436V106.32Zm34.148,0.093H75.406V81.787A11.746,11.746,0,0,0,63.653,70.106H59.268A11.746,11.746,0,0,0,47.514,81.788v24.625H15.408V29.075h91.685v77.338ZM21.535,2.58h79.432l1.822,3.635H19.712ZM18.415,8.8h85.671l2.149,4.287H16.266Zm-3.446,6.872h92.563l1.8,3.6H13.158ZM9.547,26.489l2.321-4.63h98.764l2.324,4.63H9.547ZM61.824,41.5H61.811v0H60.486a7.311,7.311,0,0,0-7.322,7.279V62.275H69.147V48.781A7.32,7.32,0,0,0,61.824,41.5Zm-6.252,5.666c0-.026.176-2.68,3.814-3.082l0.473-.052v5.87H55.572V47.185h0.152Zm4.552,12.72H55.751v-7.74h4.374v7.74Zm2.3-15.853L62.9,44.088c3.639,0.4,3.812,3.054,3.814,3.082v2.742H62.423V44.036Zm4.294,15.851H62.345V52.147h4.371v7.739ZM56,88a2,2,0,1,1-2,2A2,2,0,0,1,56,88Z"/>
</svg>
