<svg xmlns="http://www.w3.org/2000/svg" width="51" height="103" viewBox="0 0 51 103">
  <defs>
    <style>
      .cls-1 {
        fill: #ed7622;
        fill-rule: evenodd;
      }
    </style>
  </defs>
  <path class="cls-1" d="M834.786,482c1.781,0.128,1.336,1.765.3,3.372q-9.717,15.1-19.415,30.207c-0.129.2-.24,0.41-0.426,0.73,0.465,0.023.8,0.053,1.138,0.054q8.594,0,17.186-.006a1.963,1.963,0,0,1,2.065.97,2.078,2.078,0,0,1-.473,2.258q-16.331,24.108-32.643,48.228-5.418,8.01-10.824,16.029a1.914,1.914,0,0,1-1.985,1.127,1.69,1.69,0,0,1-1.239-2.306q2.088-7.473,4.206-14.936Q796.84,553,801,538.272c0.115-.405.19-0.82,0.31-1.348h-3.686q-5.25,0-10.5,0c-1.783,0-2.414-.813-2.006-2.588q5.788-25.143,11.613-50.277c0.171-.736.382-2.066,1.131-2.06h36.922Zm-3.811,37.755h-1.528q-8.486,0-16.971,0c-1.191,0-2.012-.514-2.011-1.437a3.51,3.51,0,0,1,.608-1.756q9.56-14.943,19.162-29.858c0.24-.373.462-0.759,0.756-1.243H799.816l-11.09,48.076H790q6.471,0,12.941,0c2.033,0,2.7.92,2.084,2.847-0.065.2-.123,0.409-0.181,0.615q-4.853,17.144-9.7,34.287c-0.165.583-.306,1.174-0.458,1.761l0.2,0.077Z" transform="translate(-785 -482)"/>
</svg>
