<?xml version="1.0" encoding="utf-8"?>
<!-- Generator: Adobe Illustrator 22.1.0, SVG Export Plug-In . SVG Version: 6.00 Build 0)  -->
<svg version="1.1" id="Layer_1" xmlns="http://www.w3.org/2000/svg" xmlns:xlink="http://www.w3.org/1999/xlink" x="0px" y="0px"
	 viewBox="0 0 540.1 341.4" style="enable-background:new 0 0 540.1 341.4;" xml:space="preserve">
<style type="text/css">
	.st0{opacity:0.5;fill:#E7E7E7;enable-background:new    ;}
	.st1{fill:none;stroke:#EE7F31;stroke-width:4;stroke-miterlimit:10;}
	.st2{fill:none;stroke:#827E79;stroke-width:4;stroke-miterlimit:10;}
	.st3{opacity:0.5;fill:none;stroke:#E7E7E7;stroke-width:6;stroke-miterlimit:10;enable-background:new    ;}
	.st4{fill:#E7E7E7;}
	.st5{fill:none;stroke:#827E79;stroke-width:5;stroke-miterlimit:10;}
	.st6{fill:none;stroke:#827E79;stroke-width:3;stroke-miterlimit:10;}
	.st7{fill:#EE7F31;}
	.st8{fill:none;stroke:#EE7F31;stroke-width:6;stroke-miterlimit:10;}
	.st9{fill:#FFFFFF;stroke:#000000;stroke-miterlimit:10;}
</style>
<g>
	<rect x="265.3" y="155.8" class="st0" width="13.8" height="99"/>
	<polygon class="st0" points="321,240.6 307.2,240.1 311.6,141.1 325.4,141.6 	"/>
	<polygon class="st0" points="236.5,141.1 222.7,141.6 227.1,240.6 240.9,240.1 	"/>
	<path class="st1" d="M209.6,256.5c0,0,61.5,25.4,126.7,0"/>
	<path class="st2" d="M334.3,85.3c-66.3,16.8-128.7,0-128.7,0"/>
	<path class="st3" d="M334.3,29.6c-66.3,16.8-128.7,0-128.7,0"/>
	<polygon class="st4" points="308.7,341.4 235.6,341.4 235.6,305.5 273.4,309.9 308.7,305.5 	"/>
	<line class="st5" x1="235.6" y1="341.4" x2="235.6" y2="303.8"/>
	<line class="st6" x1="274" y1="310.2" x2="274" y2="288.7"/>
	<line class="st6" x1="240.9" y1="305.7" x2="240.9" y2="284.2"/>
	<line class="st6" x1="302.9" y1="305.7" x2="302.9" y2="284.2"/>
	<line class="st5" x1="310.9" y1="341.4" x2="310.9" y2="304.2"/>
	<path class="st6" d="M219.9,298c0,0,52.6,26.1,108.3,0"/>
	<line class="st6" x1="219.9" y1="299" x2="219.9" y2="276.8"/>
	<line class="st6" x1="328.2" y1="298.9" x2="328.2" y2="276.8"/>
	<g>
		<path class="st7" d="M271.5,120.4h-3.7v4.4h-5.1v-4.4h-12.2v-3.3l10.7-13.4h5.5l-9.9,12.7h6.1v-3.9h4.9v3.9h3.7V120.4z"/>
	</g>
	<g>
		<path class="st7" d="M303.2,121.1c-2.4,0-4.7-0.7-6.5-1.9l-2,3.7c2.1,1.4,5,2.1,8,2.2c1.5-1.4,3.2-2.6,5.2-3.6
			c0.4-0.2,0.9-0.4,1.3-0.7c0.1-0.1,0.3-0.1,0.4-0.2c0.1-0.1,0.1-0.1,0.2-0.2c0.4-1.5,1.5-2.7,2.8-3.5c-0.5-2.4-2.5-4.1-6-4.6
			l5.1-5.4v-3.2h-15.8v3.9h9.6l-4.7,4.9v3.2h2.4c3,0,4.2,1,4.2,2.6C307.5,120.1,305.9,121.1,303.2,121.1z"/>
	</g>
	<g>
		<path class="st7" d="M282.2,115.1c0-1.6,1.3-2.7,2.9-2.7s2.9,1.2,2.9,2.7c0,1.6-1.3,2.8-2.9,2.8
			C283.5,117.8,282.2,116.7,282.2,115.1z"/>
	</g>
	<g>
		<path class="st7" d="M235.1,115.1c0-1.6,1.3-2.7,2.9-2.7c1.6,0,2.9,1.2,2.9,2.7c0,1.6-1.3,2.8-2.9,2.8
			C236.4,117.8,235.1,116.7,235.1,115.1z"/>
	</g>
	<path class="st5" d="M204.8,85.3V29.2c0,0,3.1-23.8,64.1-26c0,0,59,1.3,65.3,22.6l1,59.6"/>
	<path class="st8" d="M204.5,85.4c0,0-9.7,2.7-12.3,10.2c0,0,4.1,150.3,17.4,160.2V273c0,0,61.3,35.3,126.7,0v-17.2
		c0,0,20.4-67.9,12.3-160.2c0,0,0-3.7-12.8-10.6"/>
	<path class="st8" d="M336.9,82.8c-71.4,120.5-133.6,0-133.6,0"/>
	<polygon class="st7" points="272.9,128.4 267.8,136.7 278.1,136.7 	"/>
</g>
<polygon class="st9" points="0,341.4 0,341.4 0,341.4 "/>
</svg>
