<?xml version="1.0" encoding="utf-8"?>
<!-- Generator: Adobe Illustrator 23.0.1, SVG Export Plug-In . SVG Version: 6.00 Build 0)  -->
<svg version="1.1" id="Layer_1" xmlns="http://www.w3.org/2000/svg" xmlns:xlink="http://www.w3.org/1999/xlink" x="0px" y="0px"
	 viewBox="0 0 93.6 147.2" style="enable-background:new 0 0 93.6 147.2;" xml:space="preserve">
<style type="text/css">
	.st0{fill:#9A9A9A;}
	.st1{fill:#ED7622;}
</style>
<path class="st0" d="M65.3,140.1c-0.5,2.7-1,4.8-1.4,7c-0.4,0-0.9,0.1-1.3,0.1c-0.4-2-0.8-4.1-1.3-6.6c-9.3,0-18.9,0-28.6,0
	c-0.5,2.2-0.9,4.4-1.4,6.6c-0.5,0-1,0-1.5,0c-0.4-2.1-0.8-4.2-1.3-6.6c-1-0.1-2.1-0.4-3.2-0.4c-4.3,0.2-7-1.7-7.8-6
	c-0.8-4.2-3-5.9-7.6-5.8c-6.8,0.2-9.8-3-9.8-9.8C0,82.6,0,46.4,0.1,10.3c0-6.7,3.1-10.1,9.7-10.1c24.8-0.2,49.6-0.2,74.5,0
	c6.5,0.1,9.3,3.4,9.3,9.8c0,36.3,0,72.6,0,108.9c0,6.9-2.6,9.3-9.7,9.9c-2.2,0.2-5.7,1.2-6,2.5C76,137.8,72.7,141.7,65.3,140.1z
	 M3.1,64.1c0,18.2,0,36.3,0,54.5c0,5.8,1.6,7.7,7.3,7.7c24.3,0.1,48.6,0.1,73,0c5.6,0,7.3-2.1,7.3-7.8c0-36,0-72,0-108
	c0-6-2-8-8.2-8.1C58.7,2.3,34.9,2.3,11,2.4c-6.1,0-8,2-8,8.1C3.1,28.4,3.1,46.2,3.1,64.1z M19.3,129c1,8.1,1.6,8.8,8.7,8.8
	c12.6,0,25.3,0,37.9,0c6.9,0,7.9-1,8.4-8.8C56.1,129,37.9,129,19.3,129z"/>
<path class="st1" d="M46.5,31.3c-5.5,0-10.1-4-10.2-8.9s4.3-9.1,9.9-9.2c5.6-0.2,10.6,4.2,10.5,9.2C56.7,27.1,51.9,31.3,46.5,31.3z
	 M46.6,28.8c4.1-0.1,7.3-3.2,7-6.9c-0.3-4.3-3.3-6-7.1-6.3c-3.7-0.3-7.5,3.3-7.4,6.7C39.2,25.9,42.7,28.9,46.6,28.8z"/>
</svg>
