<?xml version="1.0" encoding="utf-8"?>
<!-- Generator: Adobe Illustrator 22.1.0, SVG Export Plug-In . SVG Version: 6.00 Build 0)  -->
<svg version="1.1" id="Layer_1" xmlns="http://www.w3.org/2000/svg" xmlns:xlink="http://www.w3.org/1999/xlink" x="0px" y="0px"
	 viewBox="0 0 315.4 420.1" style="enable-background:new 0 0 315.4 420.1;" xml:space="preserve">
<style type="text/css">
	.st0{fill:#fff;opacity:.5;}
	.st1{fill:#fff;opacity:.5;}
</style>
<path class="st0" d="M295.4,420.1c-91.9,0-183.7,0-275.6,0C7.5,414.4,0,405.9,0,391.2c0.2-96.7,0.1-193.4,0.1-290.1
	c0-18.3,10.6-28.7,29.2-28.8c9.7,0,19.5,0,30.1,0c0-11.4,0-21.9,0-32.8c16.1,0,31.4,0,44.4,0c7.2-9.8,12.4-19.4,20-26.4
	c6.5-6,15.9-8.8,24-13.1c6.6,0,13.1,0,19.7,0c20,6.5,35.2,18.1,41.2,39.7c16,0,31.4,0,47.4,0c0,5.8,0,11,0,16.1c0,5.3,0,10.7,0,16.3
	c9.4,0,17.6,0,25.8,0c24.2,0,33.3,9,33.3,32.9c0,93.7-0.2,187.4,0.2,281.1C315.4,402.4,310.3,413.7,295.4,420.1z M288.3,393.5
	c0-98.6,0-196.5,0-294.3c-11,0-21.5,0-32.6,0c0,10.9,0,21.2,0,31.7c-65.7,0-130.9,0-196.9,0c0-11,0-21.5,0-31.9c-11.2,0-21.5,0-32,0
	c0,98.3,0,196.3,0,294.5C114.1,393.5,200.9,393.5,288.3,393.5z M130.9,66.1c-15.3,0-30.2,0-44.8,0c0,13.5,0,26.2,0,38.7
	c48.1,0,95.5,0,143.2,0c0-13.1,0-25.7,0-39.2c-15.3,0-30.2,0-44.9,0c-2.2-28.5-9.6-39.1-26.7-39.1C140.4,26.4,133,37.1,130.9,66.1z"
	/>
<path class="st1" d="M226.6,181.8c7,6.2,13.1,11.7,19.5,17.4c-38,42.8-75.7,85.1-113.6,127.8c-20.9-18.3-41.2-36-62.2-54.4
	c5.7-6.6,11.1-12.9,17.1-19.8c14.2,12.4,28.1,24.5,42.8,37.2C162.4,253.9,194.2,218.1,226.6,181.8z"/>
<path class="st0" d="M170.7,52.6c0,7-5.7,13-12.8,13.1c-7.3,0.2-13.6-6.1-13.4-13.4c0.2-7,6.2-12.8,13.2-12.7
	C164.8,39.7,170.6,45.6,170.7,52.6z"/>
</svg>
