<svg xmlns="http://www.w3.org/2000/svg" width="72" height="110" viewBox="0 0 72 110">
  <defs>
    <style>
      .cls-1 {
        fill: #ed7622;
        fill-rule: evenodd;
      }
    </style>
  </defs>
  <path class="cls-1" d="M1157.03,2034.81c0-13.68.05-27.37-.03-41.05-0.02-3.68,1.04-7.14,1.69-10.68,0.69-3.73,1.54-7.43,2.32-11.15,0.34-1.65.62-1.9,2.32-1.9q29.73-.015,59.47-0.03a1.922,1.922,0,0,1,2.21,1.76c1.22,6.04,2.5,12.06,3.74,18.1a13.283,13.283,0,0,1,.24,2.52q0.015,42.525.01,85.05c0,2.3-.26,2.57-2.5,2.57h-67.2c-1.91,0-2.27-.36-2.27-2.26v-42.93h0Zm27.73,42.35v-24.5a8.5,8.5,0,0,1,2.37-6.08,9.186,9.186,0,0,1,10.06-2.2,8.671,8.671,0,0,1,5.55,8.37c0.02,7.43.01,14.85,0.01,22.27v2.13h23.42v-84.51h-66.31v84.52h24.9Zm-22.56-97.41a6.21,6.21,0,0,0,.75.1c6.53,0.01,13.07.02,19.6-.02a2.4,2.4,0,0,0,1.43-.74c4.69-4.62,13.26-4.66,17.98-.1a3.1,3.1,0,0,0,1.93.83c6.18,0.06,12.36.04,18.53,0.04,0.43,0,.85-0.06,1.42-0.1-0.4-1.94-.86-3.71-1.11-5.51a1.46,1.46,0,0,0-1.79-1.49c-13.02.04-26.04,0.02-39.07,0.02-5.69,0-11.38-.01-17.07.02a1.614,1.614,0,0,0-1.25.57C1163.03,1975.43,1162.65,1977.53,1162.2,1979.75Zm37.7,97.43a4.706,4.706,0,0,0,.09-0.66q0-12.135-.02-24.26a4.942,4.942,0,0,0-.18-1.32,6.269,6.269,0,0,0-6.77-4.43,6.135,6.135,0,0,0-5.53,6.31c-0.02,7.77,0,15.54,0,23.31a10.247,10.247,0,0,0,.12,1.05h12.29Zm-18.32-87.43v-7.09h-20.01c-0.49,2.38-.96,4.7-1.46,7.09h21.47Zm22.91-.02h21.43c-0.51-2.45-1-4.78-1.48-7.07h-19.95v7.07Zm-12.88-11.13c-5.53.07-8.89,5.39-7.18,11.12h7.18V1978.6Zm10.21,11.15v-4.28a7.15,7.15,0,0,0-7.37-6.83v11.11h7.37Zm-35.78,69.28c0-2.32-.02-4.64,0-6.96a5.728,5.728,0,1,1,11.44-.15c0.07,4.83.03,9.65,0.01,14.47,0,1.36-.48,1.81-1.87,1.82q-3.8.015-7.59,0.01c-1.6-.01-1.98-0.38-1.99-1.95C1166.03,2063.85,1166.04,2061.44,1166.04,2059.03Zm8.64,6.4c0.03-.54.07-0.98,0.07-1.41,0.01-3.75.01-7.49,0-11.24a7.688,7.688,0,0,0-.16-1.73,2.9,2.9,0,0,0-5.55-.41,5.137,5.137,0,0,0-.28,1.7c-0.03,4.06-.02,8.11-0.01,12.17a7.915,7.915,0,0,0,.11.92h5.82Zm45.31-6.33c0,2.37.01,4.74,0,7.1,0,1.62-.37,2-1.93,2.01-2.52.01-5.05,0.02-7.58,0-1.48,0-1.94-.44-1.95-1.89-0.01-4.78-.04-9.55.02-14.33a5.727,5.727,0,1,1,11.44.01C1220.02,2054.37,1219.99,2056.74,1219.99,2059.1Zm-2.7,6.31v-5.92c-0.01-2.55.04-5.1-.03-7.65a2.971,2.971,0,1,0-5.94-.14,14.549,14.549,0,0,0-.04,1.48c-0.01,3.48,0,6.97,0,10.46v1.77h6.01Zm-39.71-58.8c0,1.65-.02,3.31.01,4.96a1.472,1.472,0,0,1-1.65,1.76c-2.71.01-5.41,0-8.12,0a1.51,1.51,0,0,1-1.71-1.73c0.01-3.31,0-6.61.02-9.92a4.071,4.071,0,0,1,.12-0.92c0.58-2.5,3.32-4.02,6.6-3.66,2.85,0.31,4.7,2.2,4.73,4.82C1177.59,2003.49,1177.58,2005.05,1177.58,2006.61Zm-2.71,3.89c0-3.01.04-5.86-.04-8.71a2.179,2.179,0,0,0-.82-1.4,3.969,3.969,0,0,0-4.28-.01,1.814,1.814,0,0,0-.78,1.15c-0.07,2.97-.04,5.94-0.04,8.97h5.96Zm2.71,19.55c0,1.7-.01,3.4,0,5.09a1.449,1.449,0,0,1-1.62,1.66c-2.71.01-5.42,0-8.13,0.01a1.479,1.479,0,0,1-1.7-1.61c-0.02-3.44-.1-6.88.03-10.32,0.11-2.86,3.33-4.87,6.68-4.36,3.23,0.49,4.74,2.24,4.75,5.51v4.02h-0.01Zm-2.72,3.99c0-3.09.05-6.03-.04-8.96a1.955,1.955,0,0,0-.95-1.32,3.72,3.72,0,0,0-4.04.04,2.111,2.111,0,0,0-.9,1.49c-0.1,2.63-.07,5.26-0.03,7.9a1.071,1.071,0,0,0,.58.81C1171.23,2034.07,1173,2034.04,1174.86,2034.04Zm45.06-27.62c0,1.65-.01,3.3,0,4.95a1.582,1.582,0,0,1-1.81,1.8c-2.66-.01-5.33,0-7.99-0.01a1.5,1.5,0,0,1-1.68-1.75c0.02-3.35.01-6.7,0.01-10.05a3.633,3.633,0,0,1,.1-0.93c0.58-2.32,3.48-3.92,6.46-3.56,2.9,0.35,4.84,2.2,4.9,4.72C1219.94,2003.2,1219.91,2004.81,1219.92,2006.42Zm-2.79,3.88c0-3.03.04-5.96-.04-8.9a2.046,2.046,0,0,0-.96-1.3,3.76,3.76,0,0,0-3.82-.07,2.1,2.1,0,0,0-1.08,1.22c-0.09,3.01-.05,6.03-0.05,9.05h5.95Zm-8.68,19.42v-3.75c0-3.67,2.13-5.76,5.8-5.7,3.65,0.07,5.66,2.1,5.67,5.75q0.015,4.29-.01,8.57c-0.01,1.57-.42,1.97-1.98,1.98q-3.795.015-7.59,0.01c-1.53-.01-1.87-0.36-1.89-1.9C1208.44,2033.03,1208.45,2031.38,1208.45,2029.72Zm8.67,4.09c0-3.07.02-6.01-.02-8.95a1.539,1.539,0,0,0-.54-1.02,4.029,4.029,0,0,0-4.03-.48c-1.35.45-1.45,1.53-1.38,2.71,0.03,0.58.01,1.16,0.01,1.74v6h5.96Zm-29.46-27.38c0-1.52-.01-3.03,0-4.55a5.307,5.307,0,0,1,.08-1.2c0.55-2.39,3.34-3.9,6.55-3.58,2.77,0.27,4.78,2.16,4.81,4.63,0.05,3.26,0,6.52.02,9.78a1.555,1.555,0,0,1-1.75,1.83c-2.66-.01-5.33-0.01-7.99,0a1.53,1.53,0,0,1-1.74-1.82c0.04-1.69.01-3.39,0.01-5.09h0.01Zm8.69,4.06c0-3.01.02-5.95-.03-8.88a1.636,1.636,0,0,0-.64-1.1,4.055,4.055,0,0,0-4.05-.38c-1.32.51-1.34,1.62-1.27,2.78,0.03,0.49,0,.99,0,1.48v6.1h5.99Zm2.77,19.57c0,1.65-.01,3.31,0,4.96a1.565,1.565,0,0,1-1.8,1.79q-3.93-.03-7.86,0a1.533,1.533,0,0,1-1.81-1.75c0.02-3.35.01-6.7,0.01-10.05a3.556,3.556,0,0,1,.07-0.8c0.49-2.31,3.26-3.97,6.22-3.73s5.07,2.1,5.16,4.62C1199.16,2026.75,1199.12,2028.41,1199.12,2030.06Zm-8.76,3.99c1.78,0,3.37-.03,4.97.02a0.874,0.874,0,0,0,1.06-1.09q-0.06-3.675,0-7.37a1.828,1.828,0,0,0-1.51-2.07,9.394,9.394,0,0,0-3.46.23,1.963,1.963,0,0,0-1.01,1.52C1190.31,2028.14,1190.36,2031,1190.36,2034.05Zm2.49,27.19a2.091,2.091,0,0,1-.08,1.05,2.266,2.266,0,0,1-1.24,1.07,1.742,1.742,0,0,1-1.31-.98,4.4,4.4,0,0,1-.01-2.36,1.687,1.687,0,0,1,1.29-1.02,2.584,2.584,0,0,1,1.29,1.2,2.1,2.1,0,0,1,.03,1.04h0.03Z" transform="translate(-1157 -1970)"/>
</svg>
