<svg xmlns="http://www.w3.org/2000/svg" width="73" height="110" viewBox="0 0 73 110">
  <defs>
    <style>
      .cls-1 {
        fill: #ed7622;
        fill-rule: evenodd;
      }
    </style>
  </defs>
  <path class="cls-1" d="M485.513,537.249a6.248,6.248,0,0,0,.1-0.812c-0.487-10.327,3.051-18.656,9.035-25.8,1.875-2.24,3.668-4.58,5.464-6.91,3.485-4.523,3.876-9.823,2.493-15.414-0.638-2.577-1.62-5.037-2.488-7.53a2.093,2.093,0,0,1,.163-2.072,1.347,1.347,0,0,1,1.763-.569,42.513,42.513,0,0,1,21.517,19.7,38.583,38.583,0,0,1,4.426,16.915c0.007,0.217.045,0.434,0.091,0.87a7.933,7.933,0,0,0,.676-0.672c3.494-4.495,7.922-7.182,12.682-9.221a1.473,1.473,0,0,1,1.919.364,2.33,2.33,0,0,1,.221,2.28c-0.831,2.832-1.815,5.625-2.392,8.531-1.009,5.082-.285,10.069,1,15.006a138.827,138.827,0,0,1,3.321,14.225c2.3,15.267-3.146,34.924-20.754,41.547a1.47,1.47,0,0,1-2.1-.583,2.383,2.383,0,0,1,.274-2.555,31.435,31.435,0,0,0,5.155-18.08c-0.038-1.235-.306-2.46-0.468-3.69l-0.3-.05c-0.145.328-.277,0.665-0.437,0.982-0.991,1.972-1.975,3.948-2.993,5.9a5.7,5.7,0,0,1-.835,1.053,1.369,1.369,0,0,1-2.042.346,2.1,2.1,0,0,1-.533-2.468,19.892,19.892,0,0,0,.829-3.059,14.39,14.39,0,0,0-2.891-10.862c-0.988-1.293-2.037-2.522-3.07-3.767a10.938,10.938,0,0,1-2.539-8.073c0.042-.583.006-1.175,0.006-1.96a9.361,9.361,0,0,0-.864.579,17.932,17.932,0,0,0-6.451,13.093,35.156,35.156,0,0,0,.224,3.875,3.885,3.885,0,0,1-.034,1.728,2.337,2.337,0,0,1-1.371,1.1c-0.709.165-1.143-.5-1.507-1.225-0.742-1.488-1.539-2.94-2.369-4.362a6.271,6.271,0,0,0-1.167-1.108c0.059,1.006.094,1.753,0.148,2.5a14.06,14.06,0,0,1-1.642,7.627,19.98,19.98,0,0,0-2.354,5.9,13.194,13.194,0,0,0,.682,6.631,28.319,28.319,0,0,0,3.984,7.381,2.382,2.382,0,0,1,.406,2.707,1.566,1.566,0,0,1-2.195.542c-12.422-4.719-20.027-14.863-23.6-29.524a60.665,60.665,0,0,1-1.664-16.395,37.494,37.494,0,0,1,7.705-22.049,1.346,1.346,0,0,1,1.924-.567,2.056,2.056,0,0,1,.841,2.228,35.39,35.39,0,0,0,1.724,15.262A4.115,4.115,0,0,0,485.513,537.249Zm53.815-26.441c-0.409.184-.666,0.279-0.907,0.412a23.31,23.31,0,0,0-11.187,13.6c-0.434,1.3-1.2,1.755-2.126,1.367-0.774-.322-1.074-1.257-0.882-2.513q0.3-1.967.5-3.953a34.64,34.64,0,0,0-3.236-18.752,38.51,38.51,0,0,0-16.168-17.216,2.893,2.893,0,0,0-.525-0.163c0.373,1.742.73,3.374,1.072,5.011,1.429,6.856.246,12.945-3.834,18.16q-3,3.84-6.061,7.623a30.772,30.772,0,0,0-7.226,21.475c0.126,2.694.5,5.373,0.812,8.05a2.193,2.193,0,0,1-.678,2.24,1.361,1.361,0,0,1-1.977-.308,21.256,21.256,0,0,1-1.717-2.053c-2.755-3.964-4.017-8.659-4.66-13.644-0.129-.994-0.225-2-0.373-3.321-0.335.6-.513,0.894-0.665,1.2a34.009,34.009,0,0,0-3.376,14.982,57.437,57.437,0,0,0,2.638,18.092c2.77,8.634,7.356,15.468,14.223,20.009,0.444,0.294.911,0.539,1.367,0.807a6.554,6.554,0,0,0-.555-1.844,18.184,18.184,0,0,1-1.409-10.339,20.276,20.276,0,0,1,2.545-6.645,11.166,11.166,0,0,0,1.173-7.973c-0.246-1.222-.6-2.419-0.955-3.6a1.756,1.756,0,0,1,.4-2,1.787,1.787,0,0,1,1.6-.355c1.485,0.76,2.9,1.725,4.324,2.638a9.41,9.41,0,0,1,.983.858c0.114-.585.193-1.011,0.28-1.435s0.172-.866.284-1.289a21.477,21.477,0,0,1,11.579-14.421,1.5,1.5,0,0,1,2.15.334,2.379,2.379,0,0,1-.028,2.572,10.313,10.313,0,0,0,1.13,10.173c0.737,0.913,1.5,1.8,2.239,2.705a18.741,18.741,0,0,1,4.129,8.593,6.044,6.044,0,0,0,.192.641l0.252,0.012a21.88,21.88,0,0,0,.489-2.643c0.069-1,.234-1.881,1.1-2.232,0.927-.376,1.524.276,2.063,1.084a19.479,19.479,0,0,1,3.006,11.782,34.756,34.756,0,0,1-2.7,12.067c-0.153.373-.276,0.764-0.413,1.147a2.8,2.8,0,0,0,1.238-.494c11.109-7.049,14.971-22.88,12.99-34.7-0.753-4.487-1.972-8.877-3.145-13.25a39.3,39.3,0,0,1-1.026-17.965C538.544,513.878,538.938,512.447,539.328,510.808Z" transform="translate(-473 -478)"/>
</svg>
