<svg xmlns="http://www.w3.org/2000/svg" width="92" height="92" viewBox="0 0 46 46">
  <defs>
    <style>
      .cls-1 {
        fill: #f6bb91;
        fill-rule: evenodd;
      }
    </style>
  </defs>
  <path class="cls-1" d="M776.667,373.287v1.825h-0.831c-2.055,0-4.11-.007-6.165,0a2.823,2.823,0,0,0-2.838,2.831c-0.012,1.7,0,3.4,0,5.156h42.3c0.011-.189.03-0.378,0.03-0.567,0-1.527.009-3.054,0-4.581a2.833,2.833,0,0,0-2.83-2.841c-2.074-.01-4.149,0-6.224,0H799.33v-1.8c0.189-.011.377-0.029,0.565-0.03,2.074,0,4.149,0,6.223,0a4.694,4.694,0,0,1,4.871,4.838q0.015,16.559,0,33.119a4.668,4.668,0,0,1-4.728,4.743q-18.26.018-36.519,0a4.658,4.658,0,0,1-4.732-4.734q-0.02-16.618,0-33.237a4.688,4.688,0,0,1,4.276-4.708,6.346,6.346,0,0,1,.7-0.019C772.2,373.286,774.405,373.287,776.667,373.287Zm32.5,11.735H766.828v0.792q0,12.628,0,25.255a2.871,2.871,0,0,0,3.11,3.1h36.233a2.85,2.85,0,0,0,2.993-2.977q0-12.685,0-25.372v-0.794Zm-28.632-9.939v-1.757H795.45v1.757H780.534Zm-1.021-1.556c0,0.822-.021,1.645.016,2.466a0.837,0.837,0,0,0,.327.578,2.087,2.087,0,0,1,.851,2.516,2.137,2.137,0,0,1-2.164,1.55,2.279,2.279,0,0,1-2.036-1.673,2.1,2.1,0,0,1,.806-2.185,1.1,1.1,0,0,0,.382-0.918c-0.016-1.566-.009-3.132,0-4.7a0.94,0.94,0,1,1,1.823.015C779.516,371.961,779.513,372.744,779.513,373.527Zm16.968,0.016c0-.823-0.006-1.645,0-2.467a0.923,0.923,0,1,1,1.82.012q0.011,2.438,0,4.875a0.623,0.623,0,0,0,.357.646,2.193,2.193,0,1,1-2.539,3.574,1.961,1.961,0,0,1-.372-2.972,2.54,2.54,0,0,0,.739-2.2C796.455,374.523,796.481,374.032,796.481,373.543Zm-17.73,16.394a1.475,1.475,0,1,1-1.475-1.476A1.475,1.475,0,0,1,778.751,389.937Zm5.35,0a1.475,1.475,0,1,1-1.475-1.476A1.475,1.475,0,0,1,784.1,389.937Zm5.394,0a1.475,1.475,0,1,1-1.475-1.476A1.475,1.475,0,0,1,789.5,389.937Zm5.35,0a1.475,1.475,0,1,1-1.475-1.476A1.475,1.475,0,0,1,794.845,389.937Zm5.262,0a1.475,1.475,0,1,1-1.475-1.476A1.475,1.475,0,0,1,800.107,389.937Zm5.35,0a1.475,1.475,0,1,1-1.475-1.476A1.475,1.475,0,0,1,805.457,389.937Zm-26.706,6.568a1.475,1.475,0,1,1-1.475-1.476A1.475,1.475,0,0,1,778.751,396.505Zm5.35,0a1.475,1.475,0,1,1-1.475-1.476A1.475,1.475,0,0,1,784.1,396.505Zm5.394,0a1.475,1.475,0,1,1-1.475-1.476A1.475,1.475,0,0,1,789.5,396.505Zm5.35,0a1.475,1.475,0,1,1-1.475-1.476A1.475,1.475,0,0,1,794.845,396.505Zm5.262,0a1.475,1.475,0,1,1-1.475-1.476A1.475,1.475,0,0,1,800.107,396.505Zm5.35,0a1.475,1.475,0,1,1-1.475-1.476A1.475,1.475,0,0,1,805.457,396.505Zm-26.706,6.479a1.475,1.475,0,1,1-1.475-1.475A1.475,1.475,0,0,1,778.751,402.984Zm5.35,0a1.475,1.475,0,1,1-1.475-1.475A1.475,1.475,0,0,1,784.1,402.984Zm5.394,0a1.475,1.475,0,1,1-1.475-1.475A1.475,1.475,0,0,1,789.5,402.984Zm5.35,0a1.475,1.475,0,1,1-1.475-1.475A1.475,1.475,0,0,1,794.845,402.984Zm5.262,0a1.475,1.475,0,1,1-1.475-1.475A1.475,1.475,0,0,1,800.107,402.984Zm5.35,0a1.475,1.475,0,1,1-1.475-1.475A1.475,1.475,0,0,1,805.457,402.984Zm-26.706,6.259a1.475,1.475,0,1,1-1.475-1.475A1.475,1.475,0,0,1,778.751,409.243Zm-5.262-12.738a1.475,1.475,0,1,1-1.475-1.476A1.475,1.475,0,0,1,773.489,396.505Zm0,6.479a1.475,1.475,0,1,1-1.475-1.475A1.475,1.475,0,0,1,773.489,402.984Zm0,6.259a1.475,1.475,0,1,1-1.475-1.475A1.475,1.475,0,0,1,773.489,409.243Zm10.612,0a1.475,1.475,0,1,1-1.475-1.475A1.475,1.475,0,0,1,784.1,409.243Zm5.394,0a1.475,1.475,0,1,1-1.475-1.475A1.475,1.475,0,0,1,789.5,409.243Zm5.35,0a1.475,1.475,0,1,1-1.475-1.475A1.475,1.475,0,0,1,794.845,409.243Zm5.262,0a1.475,1.475,0,1,1-1.475-1.475A1.475,1.475,0,0,1,800.107,409.243Zm5.35,0a1.475,1.475,0,1,1-1.475-1.475A1.475,1.475,0,0,1,805.457,409.243Z" transform="translate(-765 -370)"/>
</svg>
