<?xml version="1.0" encoding="utf-8"?>
<!-- Generator: Adobe Illustrator 22.1.0, SVG Export Plug-In . SVG Version: 6.00 Build 0)  -->
<svg version="1.1" id="Layer_1" xmlns="http://www.w3.org/2000/svg" xmlns:xlink="http://www.w3.org/1999/xlink" x="0px" y="0px"
	 viewBox="0 0 421 420" style="enable-background:new 0 0 421 420;" xml:space="preserve">
<style type="text/css">
	.st0{fill:#fff;opacity:.5;}
	.st1{fill:none;stroke:#fff;opacity:.5;stroke-width:24;stroke-miterlimit:10;}
</style>
<g>
	<g>
		<path class="st0" d="M332.6,321.2c0,6-5,11-11,11s-11-5-11-11v-1v-1c-7-47.9-47.9-83.8-98.7-84.8h-1h-1
			c-49.9,1-90.8,34.9-98.7,82.8v3v1c0,6-5,11-11,11s-11-5-11-11l0,0l0,0v-1v-3c6-44.9,35.9-80.8,75.8-95.7
			c-23.9-15-38.9-41.9-38.9-72.8c0-46.9,36.9-85.8,83.8-85.8s83.8,37.9,83.8,85.8c0,30.9-15,57.8-38.9,72.8
			c39.9,15,69.8,50.9,75.8,94.7c0,1,1,2,1,4L332.6,321.2L332.6,321.2z M275.8,148.6c0-35.9-28.9-64.8-64.8-64.8
			s-64.8,28.9-64.8,64.8s28.9,64.8,64.8,64.8S275.8,184.5,275.8,148.6L275.8,148.6z"/>
	</g>
</g>
<circle class="st1" cx="210.9" cy="208.9" r="197.2"/>
</svg>
