<?xml version="1.0" encoding="utf-8"?>
<!-- Generator: Adobe Illustrator 19.0.0, SVG Export Plug-In . SVG Version: 6.00 Build 0)  -->
<svg version="1.1" id="Layer_1" xmlns="http://www.w3.org/2000/svg" xmlns:xlink="http://www.w3.org/1999/xlink" x="0px" y="0px"
	 viewBox="0 0 280 200" style="enable-background:new 0 0 280 200;" xml:space="preserve">
<style type="text/css">
	.st0{fill:#535353;}
	.st1{fill:#EB7723;}
	.st2{font-family:'OpenSans-Bold';}
	.st3{font-size:18.6179px;}
</style>
<rect id="XMLID_127_" x="0" y="8.2" class="st0" width="53.6" height="6.6"/>
<rect id="XMLID_126_" x="0" y="41.1" class="st0" width="55.6" height="6.6"/>
<rect id="XMLID_125_" x="47.4" y="47.7" class="st0" width="6.6" height="152.3"/>
<polygon id="XMLID_124_" class="st0" points="54.8,47.7 47,8.2 53.6,8.2 61.4,47.7 "/>
<rect id="XMLID_123_" x="226.4" y="8.2" class="st0" width="53.6" height="6.6"/>
<rect id="XMLID_122_" x="224.4" y="41.1" class="st0" width="55.6" height="6.6"/>
<rect id="XMLID_121_" x="226" y="47.7" class="st0" width="6.6" height="152.3"/>
<polygon id="XMLID_120_" class="st0" points="225.2,47.7 233,8.2 226.4,8.2 218.6,47.7 "/>
<g id="XMLID_102_">
	<g id="XMLID_118_">
		<path id="XMLID_119_" class="st1" d="M97.4,112.8h-0.1c-1.1,0-2-0.9-2-2V79c0-1.1,0.9-2,2-2h0.1c1.1,0,2,0.9,2,2v31.8
			C99.4,111.9,98.5,112.8,97.4,112.8z"/>
	</g>
	<g id="XMLID_116_">
		<path id="XMLID_117_" class="st1" d="M223.8,112.8h-0.1c-1.1,0-2-0.9-2-2V79c0-1.1,0.9-2,2-2h0.1c1.1,0,2,0.9,2,2v31.8
			C225.8,111.9,224.9,112.8,223.8,112.8z"/>
	</g>
	<rect id="XMLID_115_" x="100.3" y="92.9" class="st1" width="2.8" height="3.7"/>
	<rect id="XMLID_114_" x="108.2" y="92.9" class="st1" width="5.7" height="3.7"/>
	<rect id="XMLID_113_" x="118.3" y="92.9" class="st1" width="5.7" height="3.7"/>
	<rect id="XMLID_112_" x="127.8" y="92.9" class="st1" width="5.7" height="3.7"/>
	<rect id="XMLID_111_" x="138.4" y="92.9" class="st1" width="5.7" height="3.7"/>
	<rect id="XMLID_110_" x="149.3" y="92.9" class="st1" width="5.7" height="3.7"/>
	<rect id="XMLID_109_" x="159.5" y="92.9" class="st1" width="5.7" height="3.7"/>
	<rect id="XMLID_108_" x="169" y="92.9" class="st1" width="5.7" height="3.7"/>
	<rect id="XMLID_107_" x="179.5" y="92.9" class="st1" width="5.7" height="3.7"/>
	<rect id="XMLID_106_" x="189.6" y="92.9" class="st1" width="5.7" height="3.7"/>
	<rect id="XMLID_105_" x="199.1" y="92.9" class="st1" width="5.7" height="3.7"/>
	<rect id="XMLID_104_" x="209.6" y="92.9" class="st1" width="5.7" height="3.7"/>
	<rect id="XMLID_103_" x="219.1" y="92.9" class="st1" width="5.2" height="3.7"/>
</g>
<text id="XMLID_101_" transform="matrix(1 0 0 1 146.0713 84.7681)" class="st1 st2 st3">2m</text>
<g id="XMLID_94_">
	<path id="XMLID_98_" class="st0" d="M0,173.2h29.6v-57.1H0V173.2z M4.7,121.4h20.1v46.4H4.7V121.4z"/>
	<path id="XMLID_95_" class="st0" d="M0,68.2v37.5h29.6v-0.9C29.6,86,16.7,70.5,0,68.2z M24.8,101.8H3.5V74.9
		c11.6,1.6,19.9,12.2,21.2,26.3V101.8z"/>
</g>
<g id="XMLID_10_">
	<path id="XMLID_14_" class="st0" d="M280,116.1h-29.6v57.1H280V116.1z M275.3,167.8h-20.1v-46.4h20.1V167.8z"/>
	<path id="XMLID_11_" class="st0" d="M250.4,104.9v0.9H280V68.2C263.3,70.5,250.4,86,250.4,104.9z M255.2,101.2
		c1.4-14.1,9.6-24.7,21.2-26.3v26.9h-21.2V101.2z"/>
</g>
<g id="XMLID_3_">
	<path id="XMLID_5_" class="st0" d="M54.3,94.8c0-6.2,0-12.4,0-18.5c0-1.2,0.5-1.7,1.7-1.7c2.7,0,5.5,0,8.2,0c1,0,1.6,0.6,1.6,1.6
		c0,0.5,0,1.1,0,1.6c0,0.2,0.1,0.4,0.3,0.5c4.3,2.6,8.6,5.2,12.9,7.8c0.2,0.1,0.4,0.1,0.6,0.1c4.5,0,8.9,0,13.4,0
		c1.2,0,1.7,0.5,1.7,1.7c0,4.7,0,9.3,0,14c0,1.1-0.6,1.7-1.7,1.7c-4.5,0-9,0-13.5,0c-0.2,0-0.5,0.1-0.7,0.2
		c-4.3,2.6-8.5,5.1-12.8,7.7c-0.2,0.1-0.3,0.3-0.3,0.6c0,0.5,0,1.1,0,1.6c0,0.9-0.6,1.5-1.5,1.5c-2.8,0-5.7,0-8.5,0
		c-1,0-1.6-0.6-1.6-1.6C54.3,107.3,54.3,101.1,54.3,94.8z M65.9,108.2c0.1-0.1,0.2-0.1,0.3-0.2c3.7-2.2,7.3-4.4,11-6.6
		c0.3-0.2,0.3-0.3,0.3-0.6c0-4,0-8,0-12.1c0-0.3-0.1-0.5-0.4-0.6c-3.6-2.2-7.2-4.3-10.8-6.5c-0.1-0.1-0.3-0.1-0.4-0.2
		C65.9,90.5,65.9,99.3,65.9,108.2z M63,77.5c-2,0-3.9,0-5.8,0c0,11.6,0,23.2,0,34.7c1.9,0,3.9,0,5.8,0C63,100.7,63,89.1,63,77.5z
		 M80.4,100.7c3.9,0,7.7,0,11.6,0c0-3.9,0-7.7,0-11.6c-3.9,0-7.7,0-11.6,0C80.4,93,80.4,96.8,80.4,100.7z"/>
	<path id="XMLID_4_" class="st0" d="M58.7,106.5c0-0.5,0-0.9,0-1.4c0-0.8,0.6-1.5,1.5-1.5c0.8,0,1.4,0.6,1.4,1.4c0,1,0,1.9,0,2.9
		c0,0.8-0.6,1.4-1.4,1.5c-0.8,0-1.4-0.6-1.5-1.5C58.7,107.4,58.7,107,58.7,106.5C58.7,106.5,58.7,106.5,58.7,106.5z"/>
</g>
</svg>
