<?xml version="1.0" encoding="utf-8"?>
<!-- Generator: Adobe Illustrator 19.0.0, SVG Export Plug-In . SVG Version: 6.00 Build 0)  -->
<svg version="1.1" id="Layer_1" xmlns="http://www.w3.org/2000/svg" xmlns:xlink="http://www.w3.org/1999/xlink" x="0px" y="0px"
	 viewBox="0 0 280 200" style="enable-background:new 0 0 280 200;" xml:space="preserve">
<style type="text/css">
	.st0{fill:#535353;}
	.st1{fill:#EB7723;}
	.st2{font-family:'OpenSans-Bold';}
	.st3{font-size:18.7559px;}
</style>
<g id="XMLID_2_">
	<rect id="XMLID_128_" x="0" y="4.7" class="st0" width="54" height="6.6"/>
	<rect id="XMLID_127_" x="0" y="37.8" class="st0" width="56" height="6.6"/>
	<rect id="XMLID_126_" x="47.8" y="44.5" class="st0" width="6.6" height="155.5"/>
	<polygon id="XMLID_125_" class="st0" points="55.3,44.5 47.3,4.7 54,4.7 61.9,44.5 	"/>
	<rect id="XMLID_124_" x="199.8" y="4.7" class="st0" width="79.6" height="6.6"/>
	<rect id="XMLID_123_" x="197.7" y="37.8" class="st0" width="82.3" height="6.6"/>
	<rect id="XMLID_122_" x="199.4" y="44.5" class="st0" width="6.6" height="155.5"/>
	<polygon id="XMLID_121_" class="st0" points="198.5,44.5 206.4,4.7 199.8,4.7 191.9,44.5 	"/>
	<g id="XMLID_119_">
		<path id="XMLID_120_" class="st1" d="M98.1,110.3H98c-1.1,0-2-0.9-2-2V76.2c0-1.1,0.9-2,2-2h0.2c1.1,0,2,0.9,2,2v32.1
			C100.1,109.4,99.2,110.3,98.1,110.3z"/>
	</g>
	<g id="XMLID_117_">
		<path id="XMLID_118_" class="st1" d="M229.5,110.3h-0.2c-1.1,0-2-0.9-2-2V76.2c0-1.1,0.9-2,2-2h0.2c1.1,0,2,0.9,2,2v32.1
			C231.4,109.4,230.6,110.3,229.5,110.3z"/>
	</g>
	<rect id="XMLID_116_" x="101" y="90.2" class="st1" width="2.8" height="3.8"/>
	<rect id="XMLID_115_" x="109" y="90.2" class="st1" width="5.7" height="3.8"/>
	<rect id="XMLID_114_" x="119.2" y="90.2" class="st1" width="5.7" height="3.8"/>
	<rect id="XMLID_113_" x="128.8" y="90.2" class="st1" width="5.7" height="3.8"/>
	<rect id="XMLID_112_" x="139.4" y="90.2" class="st1" width="5.7" height="3.8"/>
	<rect id="XMLID_111_" x="150.4" y="90.2" class="st1" width="5.7" height="3.8"/>
	<rect id="XMLID_110_" x="160.6" y="90.2" class="st1" width="5.7" height="3.8"/>
	<rect id="XMLID_109_" x="170.2" y="90.2" class="st1" width="5.7" height="3.8"/>
	<rect id="XMLID_108_" x="180.9" y="90.2" class="st1" width="5.7" height="3.8"/>
	<rect id="XMLID_107_" x="191" y="90.2" class="st1" width="5.7" height="3.8"/>
	<rect id="XMLID_106_" x="201.1" y="90.2" class="st1" width="5.7" height="3.8"/>
	<rect id="XMLID_105_" x="211.7" y="90.2" class="st1" width="5.7" height="3.8"/>
	<rect id="XMLID_104_" x="221.8" y="90.2" class="st1" width="5.7" height="3.8"/>
	<text id="XMLID_103_" transform="matrix(1 0 0 1 136.8813 82.041)" class="st1 st2 st3">2m</text>
	<g id="XMLID_96_">
		<path id="XMLID_100_" class="st0" d="M0,171.1h29.8v-57.5H0V171.1z M4.8,119H25v46.7H4.8V119z"/>
		<path id="XMLID_97_" class="st0" d="M0,65.4v37.8h29.8v-0.9C29.8,83.3,16.8,67.6,0,65.4z M24.9,99.2H3.6V72.1
			c11.7,1.6,20,12.3,21.4,26.5V99.2z"/>
	</g>
	<g id="XMLID_12_">
		<path id="XMLID_93_" class="st0" d="M280,113.6h-29.8v57.5H280V113.6z M275.2,165.7H255V119h20.3V165.7z"/>
		<path id="XMLID_13_" class="st0" d="M250.2,102.3v0.9H280V65.4C263.2,67.6,250.2,83.3,250.2,102.3z M255.1,98.6
			c1.4-14.2,9.7-24.9,21.4-26.5v27.1h-21.4V98.6z"/>
	</g>
	<g id="XMLID_5_">
		<path id="XMLID_7_" class="st0" d="M54.7,92.2c0-6.2,0-12.4,0-18.7c0-1.2,0.5-1.7,1.7-1.7c2.8,0,5.5,0,8.3,0
			c1.1,0,1.6,0.6,1.6,1.6c0,0.5,0,1.1,0,1.6c0,0.2,0.1,0.4,0.3,0.5c4.3,2.6,8.7,5.2,13,7.8c0.2,0.1,0.4,0.1,0.6,0.1
			c4.5,0,9,0,13.5,0c1.2,0,1.7,0.5,1.7,1.8c0,4.7,0,9.4,0,14.1c0,1.2-0.6,1.7-1.7,1.7c-4.5,0-9,0-13.6,0c-0.2,0-0.5,0.1-0.7,0.2
			c-4.3,2.6-8.6,5.2-12.9,7.7c-0.2,0.1-0.3,0.3-0.3,0.6c0,0.5,0,1.1,0,1.6c0,0.9-0.6,1.5-1.6,1.5c-2.8,0-5.7,0-8.5,0
			c-1,0-1.6-0.6-1.6-1.6C54.7,104.8,54.7,98.5,54.7,92.2z M66.4,105.7c0.1-0.1,0.3-0.1,0.3-0.2c3.7-2.2,7.4-4.4,11-6.6
			c0.3-0.2,0.3-0.3,0.3-0.6c0-4,0-8.1,0-12.1c0-0.3-0.1-0.5-0.4-0.6c-3.6-2.2-7.3-4.3-10.9-6.5c-0.1-0.1-0.3-0.1-0.4-0.2
			C66.4,87.8,66.4,96.7,66.4,105.7z M63.5,74.7c-2,0-3.9,0-5.8,0c0,11.7,0,23.4,0,35c2,0,3.9,0,5.8,0C63.5,98,63.5,86.4,63.5,74.7z
			 M81,98.1c3.9,0,7.8,0,11.7,0c0-3.9,0-7.8,0-11.6c-3.9,0-7.8,0-11.7,0C81,90.3,81,94.2,81,98.1z"/>
		<path id="XMLID_6_" class="st0" d="M59.1,103.9c0-0.5,0-0.9,0-1.4c0-0.9,0.7-1.5,1.5-1.5c0.8,0,1.4,0.6,1.4,1.5c0,1,0,1.9,0,2.9
			c0,0.8-0.6,1.5-1.4,1.5c-0.8,0-1.5-0.6-1.5-1.5C59.1,104.9,59.1,104.4,59.1,103.9L59.1,103.9z"/>
	</g>
</g>
</svg>
