<?xml version="1.0" encoding="utf-8"?>
<!-- Generator: Adobe Illustrator 19.0.0, SVG Export Plug-In . SVG Version: 6.00 Build 0)  -->
<svg version="1.1" id="Layer_1" xmlns="http://www.w3.org/2000/svg" xmlns:xlink="http://www.w3.org/1999/xlink" x="0px" y="0px"
	 viewBox="0 0 389.5 289.2" style="enable-background:new 0 0 389.5 289.2;" xml:space="preserve">
<style type="text/css">
	.st0{fill:#ED7622;}
	.st1{fill:#525252;}
</style>
<g>
	<polygon class="st0" points="145.9,99.7 145.9,99.7 143.1,99.7 143.1,99.7 119,99.7 119,99.7 116.2,99.7 116.2,99.7 115.5,99.7 
		112.6,99.7 112.6,101.8 112.6,164.1 115.5,164.1 115.5,101.8 116.2,101.8 119,101.8 143.1,101.8 145.9,101.8 148.7,101.8 
		148.7,149.2 151.5,149.2 151.5,101.8 151.5,99.7 148.7,99.7 	"/>
	<g>
		<path class="st0" d="M132,99.6c-8.8,0-17.7,0-26.5,0c-1.7,0-2.5-0.8-2.5-2.4c0-3.9,0-7.9,0-11.8c0-1.5,0.8-2.3,2.3-2.3
			c0.8,0,1.5,0,2.3,0c0.2,0,0.6-0.2,0.7-0.4c3.7-6.1,7.4-12.3,11.1-18.5c0.2-0.3,0.2-0.6,0.2-0.9c0-6.4,0-12.8,0-19.2
			c0-1.7,0.8-2.5,2.5-2.5c6.6,0,13.3,0,19.9,0c1.6,0,2.4,0.8,2.4,2.4c0,6.4,0,12.8,0,19.2c0,0.3,0.1,0.7,0.3,1
			c3.6,6.1,7.3,12.2,11,18.3c0.2,0.3,0.4,0.5,0.8,0.5c0.8,0,1.6,0,2.3,0c1.3,0,2.2,0.9,2.2,2.2c0,4,0,8.1,0,12.1
			c0,1.4-0.8,2.2-2.3,2.2C149.9,99.6,140.9,99.6,132,99.6z M151.2,83c-0.1-0.2-0.2-0.4-0.3-0.5c-3.1-5.2-6.3-10.4-9.4-15.7
			c-0.2-0.4-0.5-0.4-0.8-0.4c-5.7,0-11.5,0-17.2,0c-0.5,0-0.7,0.2-0.9,0.5c-3.1,5.1-6.2,10.3-9.2,15.4c-0.1,0.2-0.2,0.4-0.3,0.6
			C125.7,83,138.4,83,151.2,83z M107.2,87.2c0,2.8,0,5.5,0,8.2c16.6,0,33.1,0,49.7,0c0-2.8,0-5.5,0-8.2
			C140.3,87.2,123.8,87.2,107.2,87.2z M140.3,62.3c0-5.6,0-11,0-16.5c-5.5,0-11,0-16.5,0c0,5.5,0,11,0,16.5
			C129.3,62.3,134.8,62.3,140.3,62.3z"/>
		<path class="st0" d="M148.6,93.4c-0.7,0-1.3,0-2,0c-1.2,0-2.1-0.9-2.1-2.1c0-1.1,0.9-2,2.1-2c1.4,0,2.8,0,4.1,0
			c1.2,0,2.1,0.9,2.1,2c0,1.2-0.9,2.1-2.1,2.1C150,93.4,149.3,93.4,148.6,93.4L148.6,93.4z"/>
	</g>
	<polygon class="st1" points="389.5,184.4 389.5,175.8 350,175.8 350,257.1 339.5,257.1 339.5,265.7 389.5,265.7 389.5,257.1 
		358.6,257.1 358.6,224.3 389.5,224.3 389.5,215.7 358.6,215.7 358.6,184.4 	"/>
	<path class="st1" d="M56,190.4v98.8h8.9v-91.9c0-0.5,0.3-1,0.8-1.2L308,87.4c0.2-0.1,0.3-0.1,0.5-0.1c0.2,0,0.4,0,0.5,0.1
		l79.6,35.5v-9.8l-80.1-36L56,190.4"/>
</g>
</svg>
