<?xml version="1.0" encoding="utf-8"?>
<!-- Generator: Adobe Illustrator 19.0.0, SVG Export Plug-In . SVG Version: 6.00 Build 0)  -->
<svg version="1.1" id="Layer_1" xmlns="http://www.w3.org/2000/svg" xmlns:xlink="http://www.w3.org/1999/xlink" x="0px" y="0px"
	 viewBox="0 0 131.4 123.1" style="enable-background:new 0 0 131.4 123.1;" xml:space="preserve">
<style type="text/css">
	.st0{clip-path:url(#SVGID_2_);fill:#ED7622;}
</style>
<g>
	<defs>
		<rect id="SVGID_1_" width="131.4" height="123.1"/>
	</defs>
	<clipPath id="SVGID_2_">
		<use xlink:href="#SVGID_1_"  style="overflow:visible;"/>
	</clipPath>
	<path class="st0" d="M115,123.1c3.8,0,6.9-3.1,6.9-6.9c0-1.9-0.4-2.6-2.7-6.5c-1.1-1.8-2.4-4.3-4.1-7.4c-1.7,3.1-3.1,5.7-4.2,7.5
		c-2.3,3.8-2.7,4.6-2.7,6.4C108.1,120,111.2,123.1,115,123.1"/>
	<path class="st0" d="M121.1,72.9c0,1.2,0,2.2,0,3.2c-0.1,1.7-1.1,2.8-2.5,2.8c-1.4,0-2.5-1.1-2.6-2.8c0-1.7,0-3.4,0-5.1
		c-0.1-6.6-5.6-12.2-12.2-12.6c-0.2,0-0.4,0-0.6,0c-1.6-0.2-2.6-1.3-2.6-2.7c0.1-1.4,1.2-2.5,2.8-2.4c3.7,0.1,7.2,1.1,10.2,3.4
		C119.1,60.7,121.4,66.3,121.1,72.9"/>
	<path class="st0" d="M95.4,55.9c0,1.4-1.2,2.5-2.6,2.5c-1.4,0-2.5-1.2-2.5-2.6c0-1.4,1.2-2.5,2.6-2.5
		C94.3,53.4,95.4,54.6,95.4,55.9"/>
	<path class="st0" d="M129.6,61.7c-3.9-10.9-13.9-18.2-25.6-18.6c-7.5-0.2-15-0.1-22.4,0c-0.9,0-1.5-0.2-2.1-0.8
		c-2.2-2.2-4.7-4-7.6-5.1c-0.8-0.3-1.1-0.7-1.1-1.6c0.1-3.6,0-7.3,0.1-10.9c0-0.6,0.4-1.2,0.7-1.7c1.2-1.9,3-2,5-1.9
		c4.9,0.1,9.7,0.1,14.6,0c6.1-0.1,9.8-6.4,6.7-11.6c-1.5-2.6-4-3.8-7-3.8c-5.4,0-10.9,0-16.3,0c-0.9,0-1.5-0.2-2.1-0.9
		c-1.9-2.1-4.2-3.4-7-4c-0.2,0-0.5-0.2-0.7-0.3h-3.6c-2.6,0.7-5.2,1.5-7,3.6c-1.1,1.3-2.3,1.6-3.9,1.5c-5.1-0.1-10.2-0.1-15.3,0
		c-3.5,0-6.4,2-7.5,5c-1.8,5.2,1.8,10.3,7.4,10.3c5.5,0.1,11,0,16.5,0c0.8,0,1.3,0.4,2,0.8c1.7,1.3,1.9,2.9,1.8,4.8
		c-0.1,3-0.1,6.1,0,9.1c0,0.7-0.2,1.1-0.9,1.3c-3.1,1.2-5.7,3-8,5.4c-0.3,0.3-0.9,0.6-1.3,0.6c-8.2,0-16.3,0-24.7,0
		c0-0.7,0-1.4,0-2.2c-0.1-4.8-3.3-8.1-8.1-8.1c-2.9,0-5.9,0.1-8.8,0c-1.6,0-2.8,0.4-3.6,1.8v47.7c0.8,1.4,2,1.9,3.6,1.8
		c2.7-0.1,5.4,0,8.1,0c5.7,0,8.8-3.1,8.8-8.8c0-0.5,0-1,0-1.5c8.4,0,16.5,0,24.7,0c0.5,0,1,0.4,1.4,0.7c9.4,9.3,23.6,9.3,33,0
		c0.4-0.4,1.2-0.7,1.8-0.7c5.3-0.1,10.5,0,15.8,0c2.5,0,3.4,0.9,3.4,3.4c0,4.6,0,9.1,0,13.7c0,2.2,0.7,3.1,2.5,3.3H129
		c1-0.2,1.8-0.7,2.3-1.7V68.7C130.8,66.4,130.4,63.9,129.6,61.7 M75.8,10.8c0.2,0,0.5-0.1,0.9-0.1c4.7,0,9.4,0,14.1,0
		c0.1,0,0.3,0,0.4,0c1.6,0.1,2.7,1.1,2.7,2.5c0,1.4-1.1,2.6-2.7,2.6c-3.4,0-6.7,0-10.1,0c-1.7,0-3.5,0-5.2,0V10.8z M50.4,15.9
		c-1.3,0-2.6,0-3.9,0c-3.7,0-7.3,0-11,0c-1.9,0-3.2-1.1-3.1-2.6c0-1.5,1.2-2.5,3.1-2.5c4.7,0,9.3,0,14,0c0.3,0,0.7,0,1,0.1V15.9z
		 M15.4,75.2c0,3-0.7,3.8-3.8,3.8c-2.1,0-4.2,0-6.4,0V38c2.7,0,5.4-0.1,8,0c1.4,0.1,2.2,1.2,2.2,2.9c0,3.5,0,6.9,0,10.4V75.2z
		 M54.9,13.1c0-4.5,3.7-8.2,8.2-8.2c4.5,0,8.2,3.7,8.2,8.2c0,4.5-3.7,8.2-8.2,8.2C58.6,21.3,54.9,17.6,54.9,13.1 M65.6,35.4h-5V26h5
		V35.4z M126.2,89.2h-20.5c0-4.2,0-8.3,0-12.4c0-3.3-1.3-5.8-4.4-7.2c-1.2-0.6-2.6-0.8-4-0.8c-5.7-0.1-11.4,0-17.1-0.1
		c-1.6,0-2.8,0.5-3.9,1.7c-3.8,4.2-8.6,6.2-14.3,6c-4.8-0.2-9-2.1-12.2-5.8c-1.2-1.4-2.5-1.9-4.3-1.9c-7.9,0.1-15.7,0-23.6,0h-1.5
		V48.2H22c7.9,0,15.8,0,23.7,0c1.7,0,3-0.5,4.1-1.8c4.7-5,10.5-6.9,17.3-5.4c3.4,0.8,6.4,2.4,8.7,5c1.4,1.6,2.9,2.2,5,2.2
		c7.2-0.1,14.4-0.1,21.5,0c13.6,0,23.7,10.1,23.7,23.8c0,5.3,0,10.5,0,15.8V89.2z"/>
	<path class="st0" d="M63.1,0C55.8,0,50,5.9,50,13.1c0,7.2,5.9,13.1,13.1,13.1c7.2,0,13.1-5.9,13.1-13.1C76.2,5.9,70.3,0,63.1,0
		 M63.1,21c-4.4,0-7.9-3.5-7.9-7.9c0-4.4,3.5-7.9,7.9-7.9s7.9,3.5,7.9,7.9C70.9,17.5,67.4,21,63.1,21"/>
</g>
</svg>
