<?xml version="1.0" encoding="utf-8"?>
<!-- Generator: Adobe Illustrator 19.0.0, SVG Export Plug-In . SVG Version: 6.00 Build 0)  -->
<svg version="1.1" id="Layer_1" xmlns="http://www.w3.org/2000/svg" xmlns:xlink="http://www.w3.org/1999/xlink" x="0px" y="0px"
	 viewBox="0 0 280 200" style="enable-background:new 0 0 280 200;" xml:space="preserve">
<style type="text/css">
	.st0{fill:#535353;}
	.st1{fill:#FFFFFF;}
	.st2{fill:#B0B1B2;}
</style>
<g id="XMLID_2_">
	<path id="XMLID_117_" class="st0" d="M54.7,0.9v25.2h59.2V0.9H54.7z M110,22.3H58.7V2.6H110V22.3z"/>
	<path id="XMLID_114_" class="st0" d="M61.8,199.9v-14.5H2.6v14.5H61.8z M57.9,198.3H6.6v-9.1h51.3V198.3z"/>
	<polygon id="XMLID_112_" class="st0" points="243,134.4 279.9,134.4 279.9,125.8 235.6,125.8 235.6,200.7 243,200.7 	"/>
	<path id="XMLID_111_" class="st0" d="M244.4,106.2v-0.9c1.6-17.4,16.5-32.2,35.5-35.8v-6.5c-25,2.9-44.4,23.3-44.4,48.1v1.2h44.4
		v-6.1H244.4z"/>
	<path id="XMLID_108_" class="st1" d="M144.8,73.8c11.8,0,23.7,0.1,35.5-0.1c2.5,0,3.2,0.7,3.2,3.2c-0.1,23.8-0.1,47.6,0,71.4
		c0,2.4-0.8,3-3.1,3c-23.8-0.1-47.6-0.1-71.4,0c-2.3,0-3.1-0.7-3-3c0.1-23.8,0.1-47.6,0-71.4c0-2.6,0.8-3.1,3.2-3.1
		C121.1,73.9,133,73.8,144.8,73.8z M108.7,148.6c1,0.1,1.9,0.2,2.8,0.2c22.2,0,44.4,0,66.6,0.1c2.4,0,3-0.8,3-3.1
		c-0.1-22.2,0-44.4-0.1-66.6c0-0.9-0.1-1.8-0.2-2.7c-0.8-0.1-1.2-0.1-1.7-0.1c-22.7,0-45.3,0-68-0.1c-2.2,0-2.7,0.8-2.7,2.8
		c0.1,22.4,0,44.7,0,67.1C108.5,146.9,108.6,147.6,108.7,148.6z"/>
	<path id="XMLID_10_" class="st2" d="M108.7,148.6c-0.1-1-0.2-1.7-0.2-2.4c0-22.4,0-44.7,0-67.1c0-2,0.5-2.8,2.7-2.8
		c22.7,0.1,45.3,0,68,0.1c0.5,0,0.9,0.1,1.7,0.1c0.1,0.9,0.2,1.8,0.2,2.7c0,22.2,0,44.4,0.1,66.6c0,2.3-0.6,3.1-3,3.1
		c-22.2-0.1-44.4,0-66.6-0.1C110.6,148.8,109.7,148.6,108.7,148.6z M111.5,145.6c10.9,0,21.4,0,31.8,0c0-1.6,0-2.8,0-4.1
		c-10.7,0-21.2,0-31.8,0C111.5,143,111.5,144.3,111.5,145.6z M178.1,141.5c-10.8,0-21.3,0-31.8,0c0,1.6,0,2.9,0,4.3
		c10.7,0,21.2,0,31.8,0C178.1,144.3,178.1,143.1,178.1,141.5z M111.5,125.1c10.8,0,21.3,0,31.8,0c0-1.5,0-2.9,0-4.2
		c-10.7,0-21.2,0-31.8,0C111.5,122.3,111.5,123.6,111.5,125.1z M178,113.8c-10.7,0-21.2,0-31.8,0c0,1.5,0,2.8,0,4.3
		c10.7,0,21.1,0,31.8,0C178,116.7,178,115.5,178,113.8z M143.4,113.9c-10.8,0-21.3,0-31.8,0c0,1.5,0,2.9,0,4.3c10.7,0,21.2,0,31.8,0
		C143.4,116.7,143.4,115.4,143.4,113.9z M111.5,111.1c10.8,0,21.3,0,31.8,0c0-1.5,0-2.9,0-4.3c-10.7,0-21.2,0-31.8,0
		C111.5,108.4,111.5,109.6,111.5,111.1z M111.5,131.9c10.8,0,21.3,0,31.8,0c0-1.5,0-2.8,0-4.2c-10.7,0-21.2,0-31.8,0
		C111.5,129.2,111.5,130.5,111.5,131.9z M146.2,104.3c10.7,0,21.2,0,31.9,0c0-1.5,0-2.8,0-4.2c-10.7,0-21.3,0-31.9,0
		C146.2,101.5,146.2,102.8,146.2,104.3z M111.5,104.3c10.8,0,21.3,0,31.8,0c0-1.6,0-2.9,0-4.2c-10.7,0-21.2,0-31.8,0
		C111.5,101.5,111.5,102.8,111.5,104.3z M146.2,131.8c10.8,0,21.3,0,31.8,0c0-1.6,0-2.8,0-4.2c-10.7,0-21.2,0-31.8,0
		C146.2,129.1,146.2,130.4,146.2,131.8z M178.1,93.2c-10.8,0-21.2,0-31.8,0c0,1.5,0,2.8,0,4.2c10.7,0,21.2,0,31.8,0
		C178.1,96,178.1,94.7,178.1,93.2z M111.5,97.4c10.8,0,21.3,0,31.8,0c0-1.6,0-2.9,0-4.2c-10.7,0-21.2,0-31.8,0
		C111.5,94.7,111.5,96,111.5,97.4z M111.5,138.8c10.7,0,21.2,0,31.8,0c0-1.5,0-2.9,0-4.2c-10.7,0-21.2,0-31.8,0
		C111.5,136,111.5,137.3,111.5,138.8z M146.2,138.8c10.7,0,21.2,0,31.8,0c0-1.6,0-2.9,0-4.2c-10.7,0-21.2,0-31.8,0
		C146.2,136.1,146.2,137.3,146.2,138.8z M111.5,83.5c10.7,0,21.2,0,31.8,0c0-1.6,0-2.9,0-4.2c-10.7,0-21.2,0-31.8,0
		C111.5,80.7,111.5,82,111.5,83.5z M146.2,125c10.7,0,21.2,0,31.9,0c0-1.5,0-2.8,0-4.2c-10.7,0-21.3,0-31.9,0
		C146.2,122.3,146.2,123.6,146.2,125z M146.2,111.1c10.8,0,21.3,0,32.1,0c-0.1-1.6-0.1-2.9-0.2-4.1c-10.8,0-21.3,0-31.9,0
		C146.2,108.4,146.2,109.6,146.2,111.1z M178,90.5c0-1.5,0-2.8,0-4.2c-10.7,0-21.3,0-31.8,0c0,1.5,0,2.8,0,4.2
		C156.9,90.5,167.4,90.5,178,90.5z M146.2,83.4c10.7,0,21.2,0,32,0c-0.1-1.6-0.1-2.9-0.2-4.1c-10.8,0-21.3,0-31.8,0
		C146.2,80.8,146.2,82.1,146.2,83.4z"/>
	<rect id="XMLID_9_" x="111.5" y="86.3" class="st1" width="31.8" height="4.2"/>
	<path id="XMLID_6_" class="st0" d="M97.9,65.7v93.6h93.6V65.7H97.9z M186.5,154.2H103V70.8h83.5V154.2z"/>
	<path id="XMLID_3_" class="st0" d="M106.4,74.1v76.8h76.8V74.1H106.4z M179.7,147.4h-69.9V77.6h69.9V147.4z"/>
</g>
</svg>
